\relax 
\providecommand\hyper@newdestlabel[2]{}
\providecommand\HyperFirstAtBeginDocument{\AtBeginDocument}
\HyperFirstAtBeginDocument{\ifx\hyper@anchor\@undefined
\global\let\oldcontentsline\contentsline
\gdef\contentsline#1#2#3#4{\oldcontentsline{#1}{#2}{#3}}
\global\let\oldnewlabel\newlabel
\gdef\newlabel#1#2{\newlabelxx{#1}#2}
\gdef\newlabelxx#1#2#3#4#5#6{\oldnewlabel{#1}{{#2}{#3}}}
\AtEndDocument{\ifx\hyper@anchor\@undefined
\let\contentsline\oldcontentsline
\let\newlabel\oldnewlabel
\fi}
\fi}
\global\let\hyper@last\relax 
\gdef\HyperFirstAtBeginDocument#1{#1}
\providecommand\HyField@AuxAddToFields[1]{}
\providecommand\HyField@AuxAddToCoFields[2]{}
\@writefile{toc}{\contentsline {section}{\numberline {1}Wst\IeC {\k e}p}{2}{section.1}}
\@writefile{toc}{\contentsline {section}{\numberline {2}Program}{2}{section.2}}
\@writefile{toc}{\contentsline {subsection}{\numberline {2.1}Funkcje robota}{2}{subsection.2.1}}
\@writefile{toc}{\contentsline {subsubsection}{\numberline {2.1.1}Kalibracja czujnik\IeC {\'o}w}{2}{subsubsection.2.1.1}}
\@writefile{lol}{\contentsline {lstlisting}{\numberline {1}Funkcja kalibracji czujnik\IeC {\'o}w}{2}{lstlisting.1}}
\@writefile{toc}{\contentsline {subsubsection}{\numberline {2.1.2}Testowanie czujnik\IeC {\'o}w}{3}{subsubsection.2.1.2}}
\@writefile{lol}{\contentsline {lstlisting}{\numberline {2}Funkcja odczytu czujnik\IeC {\'o}w}{3}{lstlisting.2}}
\@writefile{lol}{\contentsline {lstlisting}{\numberline {3}Kod odpowiadaj\IeC {\k a}cy za wy\IeC {\'s}wietlanie odczytu}{3}{lstlisting.3}}
\@writefile{toc}{\contentsline {subsubsection}{\numberline {2.1.3}Sprawdzanie poziomu baterii}{4}{subsubsection.2.1.3}}
\@writefile{lol}{\contentsline {lstlisting}{\numberline {4}Kod odpowiadaj\IeC {\k a}cy za pomiar napi\IeC {\k e}cia baterii}{4}{lstlisting.4}}
\@writefile{lol}{\contentsline {lstlisting}{\numberline {5}Kod odpowiadaj\IeC {\k a}cy za wy\IeC {\'s}wietlanie napi\IeC {\k e}cia baterii}{4}{lstlisting.5}}
\@writefile{toc}{\contentsline {subsubsection}{\numberline {2.1.4}Dodatkowe funkcje}{4}{subsubsection.2.1.4}}
\@writefile{lol}{\contentsline {lstlisting}{\numberline {6}Kod odczytuj\IeC {\k a}cy stan przycisk\IeC {\'o}w}{5}{lstlisting.6}}
\@writefile{lol}{\contentsline {lstlisting}{\numberline {7}Funkcja wykonywana przy wci\IeC {\'s}ni\IeC {\k e}ciu przycisk\IeC {\'o}w}{5}{lstlisting.7}}
\@writefile{lol}{\contentsline {lstlisting}{\numberline {8}Funkcja steruj\IeC {\k a}ca diodami LED}{6}{lstlisting.8}}
\@writefile{lol}{\contentsline {lstlisting}{\numberline {9}Funkcja steruj\IeC {\k a}ca silnikami}{6}{lstlisting.9}}
\@writefile{toc}{\contentsline {subsubsection}{\numberline {2.1.5}Jazda}{7}{subsubsection.2.1.5}}
\@writefile{lol}{\contentsline {lstlisting}{\numberline {10}Kod przedstawiaj\IeC {\k a}cy tryb jazdy}{7}{lstlisting.10}}
\@writefile{toc}{\contentsline {subsection}{\numberline {2.2}Opis algorytmu}{7}{subsection.2.2}}
\@writefile{toc}{\contentsline {subsubsection}{\numberline {2.2.1}Cz\IeC {\l }on proporcjonalny - P}{7}{subsubsection.2.2.1}}
\@writefile{toc}{\contentsline {subsubsection}{\numberline {2.2.2}Cz\IeC {\l }on r\IeC {\'o}\IeC {\.z}niczkuj\IeC {\k a}cy - D}{8}{subsubsection.2.2.2}}
\@writefile{toc}{\contentsline {subsubsection}{\numberline {2.2.3}B\IeC {\l }\IeC {\k a}d ostateczny}{8}{subsubsection.2.2.3}}
\@writefile{toc}{\contentsline {subsubsection}{\numberline {2.2.4}Zgubienie linii}{8}{subsubsection.2.2.4}}
\@writefile{toc}{\contentsline {section}{\numberline {3}Komunikacja Bluetooth}{8}{section.3}}
\@writefile{toc}{\contentsline {subsection}{\numberline {3.1}Przyk\IeC {\l }adowa ramka danych}{8}{subsection.3.1}}
\@writefile{toc}{\contentsline {subsection}{\numberline {3.2}Implementacja komunikacji}{9}{subsection.3.2}}
\@writefile{lol}{\contentsline {lstlisting}{\numberline {11}Kod przedstawiaj\IeC {\k a}cy tryb jazdy}{9}{lstlisting.11}}
\@writefile{toc}{\contentsline {section}{\numberline {4}Aplikacja mobilna}{9}{section.4}}
\@writefile{lof}{\contentsline {figure}{\numberline {1}{\ignorespaces Pogl\IeC {\k a}dowy schemat aplikacji zbudowanej za pomoc\IeC {\k a} bloczk\IeC {\'o}w}}{10}{figure.1}}
\@writefile{toc}{\contentsline {subsection}{\numberline {4.1}Okno g\IeC {\l }\IeC {\'o}wne}{10}{subsection.4.1}}
\@writefile{lof}{\contentsline {figure}{\numberline {2}{\ignorespaces Okno g\IeC {\l }\IeC {\'o}wne przed po\IeC {\l }\IeC {\k a}czeniem z robotem}}{11}{figure.2}}
\@writefile{lof}{\contentsline {figure}{\numberline {3}{\ignorespaces Okno g\IeC {\l }\IeC {\'o}wne po po\IeC {\l }\IeC {\k a}czeniu z robotem}}{11}{figure.3}}
\@writefile{toc}{\contentsline {subsection}{\numberline {4.2}Regulacja nastaw}{11}{subsection.4.2}}
\@writefile{lof}{\contentsline {figure}{\numberline {4}{\ignorespaces Okno regulacji nastaw}}{12}{figure.4}}
\@writefile{toc}{\contentsline {subsection}{\numberline {4.3}Test czujnik\IeC {\'o}w}{12}{subsection.4.3}}
\@writefile{lof}{\contentsline {figure}{\numberline {5}{\ignorespaces Okno regulacji nastaw}}{12}{figure.5}}
\@writefile{toc}{\contentsline {subsection}{\numberline {4.4}Sterowanie robotem}{12}{subsection.4.4}}
\@writefile{lof}{\contentsline {figure}{\numberline {6}{\ignorespaces Okno sterowania robotem}}{13}{figure.6}}
\@writefile{toc}{\contentsline {section}{\numberline {5}Problemy}{13}{section.5}}
\@writefile{toc}{\contentsline {subsection}{\numberline {5.1}Problem z zasilaniem}{13}{subsection.5.1}}
\@writefile{toc}{\contentsline {subsection}{\numberline {5.2}Zwarcie \IeC {\'s}cie\IeC {\.z}ek}{13}{subsection.5.2}}
\@writefile{toc}{\contentsline {section}{\numberline {6}Zako\IeC {\'n}czenie}{14}{section.6}}
