\relax 
\providecommand\hyper@newdestlabel[2]{}
\providecommand\HyperFirstAtBeginDocument{\AtBeginDocument}
\HyperFirstAtBeginDocument{\ifx\hyper@anchor\@undefined
\global\let\oldcontentsline\contentsline
\gdef\contentsline#1#2#3#4{\oldcontentsline{#1}{#2}{#3}}
\global\let\oldnewlabel\newlabel
\gdef\newlabel#1#2{\newlabelxx{#1}#2}
\gdef\newlabelxx#1#2#3#4#5#6{\oldnewlabel{#1}{{#2}{#3}}}
\AtEndDocument{\ifx\hyper@anchor\@undefined
\let\contentsline\oldcontentsline
\let\newlabel\oldnewlabel
\fi}
\fi}
\global\let\hyper@last\relax 
\gdef\HyperFirstAtBeginDocument#1{#1}
\providecommand\HyField@AuxAddToFields[1]{}
\providecommand\HyField@AuxAddToCoFields[2]{}
\@writefile{toc}{\contentsline {section}{\numberline {1}Opis projektu}{2}{section.1}}
\newlabel{sec:opis}{{1}{2}{Opis projektu}{section.1}{}}
\@writefile{toc}{\contentsline {section}{\numberline {2}Efekt ko\IeC {\'n}cowy}{2}{section.2}}
\@writefile{toc}{\contentsline {subsection}{\numberline {2.1}Robot}{2}{subsection.2.1}}
\@writefile{toc}{\contentsline {subsection}{\numberline {2.2}Aplikacja}{2}{subsection.2.2}}
\@writefile{toc}{\contentsline {section}{\numberline {3}Harmonogram realizacji}{3}{section.3}}
\@writefile{toc}{\contentsline {section}{\numberline {4}Diagram Gantta}{3}{section.4}}
\@writefile{lof}{\contentsline {figure}{\numberline {1}{\ignorespaces Diagram Gantta}}{3}{figure.1}}
\@writefile{toc}{\contentsline {section}{\numberline {5}Kamienie milowe}{3}{section.5}}
