\contentsline {section}{\numberline {1}Opis projektu}{2}{section.1}
\contentsline {section}{\numberline {2}Efekt ko\IeC {\'n}cowy}{2}{section.2}
\contentsline {subsection}{\numberline {2.1}Robot}{2}{subsection.2.1}
\contentsline {subsection}{\numberline {2.2}Aplikacja}{2}{subsection.2.2}
\contentsline {section}{\numberline {3}Harmonogram realizacji}{3}{section.3}
\contentsline {section}{\numberline {4}Diagram Gantta}{3}{section.4}
\contentsline {section}{\numberline {5}Kamienie milowe}{3}{section.5}
