\relax 
\providecommand\hyper@newdestlabel[2]{}
\providecommand\HyperFirstAtBeginDocument{\AtBeginDocument}
\HyperFirstAtBeginDocument{\ifx\hyper@anchor\@undefined
\global\let\oldcontentsline\contentsline
\gdef\contentsline#1#2#3#4{\oldcontentsline{#1}{#2}{#3}}
\global\let\oldnewlabel\newlabel
\gdef\newlabel#1#2{\newlabelxx{#1}#2}
\gdef\newlabelxx#1#2#3#4#5#6{\oldnewlabel{#1}{{#2}{#3}}}
\AtEndDocument{\ifx\hyper@anchor\@undefined
\let\contentsline\oldcontentsline
\let\newlabel\oldnewlabel
\fi}
\fi}
\global\let\hyper@last\relax 
\gdef\HyperFirstAtBeginDocument#1{#1}
\providecommand\HyField@AuxAddToFields[1]{}
\providecommand\HyField@AuxAddToCoFields[2]{}
\@writefile{toc}{\contentsline {section}{\numberline {1}Wst\IeC {\k e}p}{3}{section.1}}
\@writefile{toc}{\contentsline {section}{\numberline {2}Opis projektu}{3}{section.2}}
\newlabel{sec:opis}{{2}{3}{Opis projektu}{section.2}{}}
\@writefile{toc}{\contentsline {section}{\numberline {3}Efekt ko\IeC {\'n}cowy}{3}{section.3}}
\@writefile{toc}{\contentsline {subsection}{\numberline {3.1}Robot}{3}{subsection.3.1}}
\@writefile{toc}{\contentsline {subsection}{\numberline {3.2}Aplikacja}{4}{subsection.3.2}}
\@writefile{toc}{\contentsline {section}{\numberline {4}Narz\IeC {\k e}dzia (programy)}{4}{section.4}}
\@writefile{toc}{\contentsline {section}{\numberline {5}Dob\IeC {\'o}r element\IeC {\'o}w elektronicznych}{4}{section.5}}
\@writefile{toc}{\contentsline {section}{\numberline {6}Schematy ideowe p\IeC {\l }ytek}{5}{section.6}}
\@writefile{lof}{\contentsline {figure}{\numberline {1}{\ignorespaces Mikrokontroler skonfigurowany w STM32Cube1MX}}{5}{figure.1}}
\@writefile{lof}{\contentsline {figure}{\numberline {2}{\ignorespaces Schemat po\IeC {\l }\IeC {\k a}czenia mikrokontrolera}}{6}{figure.2}}
\@writefile{toc}{\contentsline {subsection}{\numberline {6.1}P\IeC {\l }ytka g\IeC {\l }\IeC {\'o}wna}{6}{subsection.6.1}}
\@writefile{lof}{\contentsline {figure}{\numberline {3}{\ignorespaces Schemat po\IeC {\l }\IeC {\k a}czenia pozosta\IeC {\l }ych element\IeC {\'o}w}}{8}{figure.3}}
\@writefile{toc}{\contentsline {subsection}{\numberline {6.2}P\IeC {\l }ytka z czujnikami}{9}{subsection.6.2}}
\@writefile{lof}{\contentsline {figure}{\numberline {4}{\ignorespaces Schemat ideowy p\IeC {\l }ytki z czujnikami}}{9}{figure.4}}
\@writefile{toc}{\contentsline {section}{\numberline {7}Projekty oraz wykonanie p\IeC {\l }ytek}{10}{section.7}}
\@writefile{toc}{\contentsline {subsection}{\numberline {7.1}P\IeC {\l }ytka g\IeC {\l }\IeC {\'o}wna}{10}{subsection.7.1}}
\@writefile{lof}{\contentsline {figure}{\numberline {5}{\ignorespaces Projekt p\IeC {\l }ytki g\IeC {\l }\IeC {\'o}wnej - wartwa g\IeC {\'o}rna}}{10}{figure.5}}
\@writefile{lof}{\contentsline {figure}{\numberline {6}{\ignorespaces Projekt p\IeC {\l }ytki g\IeC {\l }\IeC {\'o}wnej - wartwa dolna}}{10}{figure.6}}
\@writefile{toc}{\contentsline {subsection}{\numberline {7.2}P\IeC {\l }ytka z czujnikami}{11}{subsection.7.2}}
\@writefile{lof}{\contentsline {figure}{\numberline {7}{\ignorespaces Projekt p\IeC {\l }ytki z czujnikami - wartwa g\IeC {\'o}rna}}{11}{figure.7}}
\@writefile{lof}{\contentsline {figure}{\numberline {8}{\ignorespaces Projekt p\IeC {\l }ytki czujnikami - wartwa dolna}}{11}{figure.8}}
\@writefile{toc}{\contentsline {section}{\numberline {8}Program}{12}{section.8}}
\@writefile{toc}{\contentsline {subsection}{\numberline {8.1}Funkcje robota}{12}{subsection.8.1}}
\@writefile{toc}{\contentsline {subsubsection}{\numberline {8.1.1}Kalibracja czujnik\IeC {\'o}w}{12}{subsubsection.8.1.1}}
\@writefile{lol}{\contentsline {lstlisting}{\numberline {1}Funkcja kalibracji czujnik\IeC {\'o}w}{12}{lstlisting.1}}
\@writefile{toc}{\contentsline {subsubsection}{\numberline {8.1.2}Testowanie czujnik\IeC {\'o}w}{12}{subsubsection.8.1.2}}
\@writefile{lol}{\contentsline {lstlisting}{\numberline {2}Funkcja odczytu czujnik\IeC {\'o}w}{13}{lstlisting.2}}
\@writefile{lol}{\contentsline {lstlisting}{\numberline {3}Kod odpowiadaj\IeC {\k a}cy za wy\IeC {\'s}wietlanie odczytu}{13}{lstlisting.3}}
\@writefile{toc}{\contentsline {subsubsection}{\numberline {8.1.3}Sprawdzanie poziomu baterii}{13}{subsubsection.8.1.3}}
\@writefile{lol}{\contentsline {lstlisting}{\numberline {4}Kod odpowiadaj\IeC {\k a}cy za pomiar napi\IeC {\k e}cia baterii}{14}{lstlisting.4}}
\@writefile{lol}{\contentsline {lstlisting}{\numberline {5}Kod odpowiadaj\IeC {\k a}cy za wy\IeC {\'s}wietlanie napi\IeC {\k e}cia baterii}{14}{lstlisting.5}}
\@writefile{toc}{\contentsline {subsubsection}{\numberline {8.1.4}Dodatkowe funkcje}{14}{subsubsection.8.1.4}}
\@writefile{lol}{\contentsline {lstlisting}{\numberline {6}Kod odczytuj\IeC {\k a}cy stan przycisk\IeC {\'o}w}{14}{lstlisting.6}}
\@writefile{lol}{\contentsline {lstlisting}{\numberline {7}Funkcja wykonywana przy wci\IeC {\'s}ni\IeC {\k e}ciu przycisk\IeC {\'o}w}{15}{lstlisting.7}}
\@writefile{lol}{\contentsline {lstlisting}{\numberline {8}Funkcja steruj\IeC {\k a}ca diodami LED}{16}{lstlisting.8}}
\@writefile{lol}{\contentsline {lstlisting}{\numberline {9}Funkcja steruj\IeC {\k a}ca silnikami}{16}{lstlisting.9}}
\@writefile{toc}{\contentsline {subsubsection}{\numberline {8.1.5}Jazda}{17}{subsubsection.8.1.5}}
\@writefile{lol}{\contentsline {lstlisting}{\numberline {10}Kod przedstawiaj\IeC {\k a}cy tryb jazdy}{17}{lstlisting.10}}
\@writefile{toc}{\contentsline {subsection}{\numberline {8.2}Opis algorytmu}{17}{subsection.8.2}}
\@writefile{toc}{\contentsline {subsubsection}{\numberline {8.2.1}Cz\IeC {\l }on proporcjonalny - P}{17}{subsubsection.8.2.1}}
\@writefile{toc}{\contentsline {subsubsection}{\numberline {8.2.2}Cz\IeC {\l }on r\IeC {\'o}\IeC {\.z}niczkuj\IeC {\k a}cy - D}{18}{subsubsection.8.2.2}}
\@writefile{toc}{\contentsline {subsubsection}{\numberline {8.2.3}B\IeC {\l }\IeC {\k a}d ostateczny}{18}{subsubsection.8.2.3}}
\@writefile{toc}{\contentsline {subsubsection}{\numberline {8.2.4}Zgubienie linii}{18}{subsubsection.8.2.4}}
\@writefile{toc}{\contentsline {section}{\numberline {9}Komunikacja Bluetooth}{18}{section.9}}
\@writefile{toc}{\contentsline {subsection}{\numberline {9.1}Przyk\IeC {\l }adowa ramka danych}{18}{subsection.9.1}}
\@writefile{toc}{\contentsline {subsection}{\numberline {9.2}Implementacja komunikacji}{19}{subsection.9.2}}
\@writefile{lol}{\contentsline {lstlisting}{\numberline {11}Kod przedstawiaj\IeC {\k a}cy tryb jazdy}{19}{lstlisting.11}}
\@writefile{toc}{\contentsline {section}{\numberline {10}Aplikacja mobilna}{19}{section.10}}
\@writefile{lof}{\contentsline {figure}{\numberline {9}{\ignorespaces Pogl\IeC {\k a}dowy schemat aplikacji zbudowanej za pomoc\IeC {\k a} bloczk\IeC {\'o}w}}{20}{figure.9}}
\@writefile{toc}{\contentsline {subsection}{\numberline {10.1}Okno g\IeC {\l }\IeC {\'o}wne}{20}{subsection.10.1}}
\@writefile{lof}{\contentsline {figure}{\numberline {10}{\ignorespaces Okno g\IeC {\l }\IeC {\'o}wne przed po\IeC {\l }\IeC {\k a}czeniem z robotem}}{21}{figure.10}}
\@writefile{lof}{\contentsline {figure}{\numberline {11}{\ignorespaces Okno g\IeC {\l }\IeC {\'o}wne po po\IeC {\l }\IeC {\k a}czeniu z robotem}}{21}{figure.11}}
\@writefile{toc}{\contentsline {subsection}{\numberline {10.2}Regulacja nastaw}{22}{subsection.10.2}}
\@writefile{lof}{\contentsline {figure}{\numberline {12}{\ignorespaces Okno regulacji nastaw}}{22}{figure.12}}
\@writefile{toc}{\contentsline {subsection}{\numberline {10.3}Test czujnik\IeC {\'o}w}{22}{subsection.10.3}}
\@writefile{lof}{\contentsline {figure}{\numberline {13}{\ignorespaces Okno regulacji nastaw}}{22}{figure.13}}
\@writefile{toc}{\contentsline {subsection}{\numberline {10.4}Sterowanie robotem}{23}{subsection.10.4}}
\@writefile{lof}{\contentsline {figure}{\numberline {14}{\ignorespaces Okno sterowania robotem}}{23}{figure.14}}
\@writefile{toc}{\contentsline {section}{\numberline {11}Problemy}{23}{section.11}}
\@writefile{toc}{\contentsline {subsection}{\numberline {11.1}Problem z zasilaniem}{23}{subsection.11.1}}
\@writefile{toc}{\contentsline {subsection}{\numberline {11.2}Zwarcie \IeC {\'s}cie\IeC {\.z}ek}{24}{subsection.11.2}}
\@writefile{toc}{\contentsline {section}{\numberline {12}Harmonogram realizacji}{24}{section.12}}
\@writefile{toc}{\contentsline {section}{\numberline {13}Diagram Gantta}{24}{section.13}}
\@writefile{lof}{\contentsline {figure}{\numberline {15}{\ignorespaces Diagram Gantta}}{24}{figure.15}}
\@writefile{toc}{\contentsline {section}{\numberline {14}Kamienie milowe}{24}{section.14}}
\@writefile{toc}{\contentsline {section}{\numberline {15}Zako\IeC {\'n}czenie}{25}{section.15}}
