\relax 
\providecommand\hyper@newdestlabel[2]{}
\providecommand\HyperFirstAtBeginDocument{\AtBeginDocument}
\HyperFirstAtBeginDocument{\ifx\hyper@anchor\@undefined
\global\let\oldcontentsline\contentsline
\gdef\contentsline#1#2#3#4{\oldcontentsline{#1}{#2}{#3}}
\global\let\oldnewlabel\newlabel
\gdef\newlabel#1#2{\newlabelxx{#1}#2}
\gdef\newlabelxx#1#2#3#4#5#6{\oldnewlabel{#1}{{#2}{#3}}}
\AtEndDocument{\ifx\hyper@anchor\@undefined
\let\contentsline\oldcontentsline
\let\newlabel\oldnewlabel
\fi}
\fi}
\global\let\hyper@last\relax 
\gdef\HyperFirstAtBeginDocument#1{#1}
\providecommand\HyField@AuxAddToFields[1]{}
\providecommand\HyField@AuxAddToCoFields[2]{}
\@writefile{toc}{\contentsline {section}{\numberline {1}Wst\IeC {\k e}p}{2}{section.1}}
\@writefile{toc}{\contentsline {section}{\numberline {2}Narz\IeC {\k e}dzia (programy)}{2}{section.2}}
\@writefile{toc}{\contentsline {section}{\numberline {3}Dob\IeC {\'o}r element\IeC {\'o}w elektronicznych}{2}{section.3}}
\@writefile{toc}{\contentsline {section}{\numberline {4}Schematy ideowe p\IeC {\l }ytek}{3}{section.4}}
\@writefile{lof}{\contentsline {figure}{\numberline {1}{\ignorespaces Mikrokontroler skonfigurowany w STM32Cube1MX}}{3}{figure.1}}
\@writefile{lof}{\contentsline {figure}{\numberline {2}{\ignorespaces Schemat po\IeC {\l }\IeC {\k a}czenia mikrokontrolera}}{4}{figure.2}}
\@writefile{toc}{\contentsline {subsection}{\numberline {4.1}P\IeC {\l }ytka g\IeC {\l }\IeC {\'o}wna}{4}{subsection.4.1}}
\@writefile{lof}{\contentsline {figure}{\numberline {3}{\ignorespaces Schemat po\IeC {\l }\IeC {\k a}czenia pozosta\IeC {\l }ych element\IeC {\'o}w}}{6}{figure.3}}
\@writefile{toc}{\contentsline {subsection}{\numberline {4.2}P\IeC {\l }ytka z czujnikami}{7}{subsection.4.2}}
\@writefile{lof}{\contentsline {figure}{\numberline {4}{\ignorespaces Schemat ideowy p\IeC {\l }ytki z czujnikami}}{7}{figure.4}}
\@writefile{toc}{\contentsline {section}{\numberline {5}Projekty oraz wykonanie p\IeC {\l }ytek}{7}{section.5}}
\@writefile{toc}{\contentsline {subsection}{\numberline {5.1}P\IeC {\l }ytka g\IeC {\l }\IeC {\'o}wna}{7}{subsection.5.1}}
\@writefile{lof}{\contentsline {figure}{\numberline {5}{\ignorespaces Projekt p\IeC {\l }ytki g\IeC {\l }\IeC {\'o}wnej - wartwa g\IeC {\'o}rna}}{8}{figure.5}}
\@writefile{toc}{\contentsline {subsection}{\numberline {5.2}P\IeC {\l }ytka z czujnikami}{8}{subsection.5.2}}
\@writefile{toc}{\contentsline {section}{\numberline {6}Zako\IeC {\'n}czenie}{8}{section.6}}
\@writefile{lof}{\contentsline {figure}{\numberline {6}{\ignorespaces Projekt p\IeC {\l }ytki g\IeC {\l }\IeC {\'o}wnej - wartwa dolna}}{9}{figure.6}}
\@writefile{lof}{\contentsline {figure}{\numberline {7}{\ignorespaces Projekt p\IeC {\l }ytki z czujnikami - wartwa g\IeC {\'o}rna}}{9}{figure.7}}
\@writefile{lof}{\contentsline {figure}{\numberline {8}{\ignorespaces Projekt p\IeC {\l }ytki czujnikami - wartwa dolna}}{10}{figure.8}}
