\contentsline {section}{\numberline {1}Wst\IeC {\k e}p}{2}{section.1}
\contentsline {section}{\numberline {2}Narz\IeC {\k e}dzia (programy)}{2}{section.2}
\contentsline {section}{\numberline {3}Dob\IeC {\'o}r element\IeC {\'o}w elektronicznych}{2}{section.3}
\contentsline {section}{\numberline {4}Schematy ideowe p\IeC {\l }ytek}{3}{section.4}
\contentsline {subsection}{\numberline {4.1}P\IeC {\l }ytka g\IeC {\l }\IeC {\'o}wna}{4}{subsection.4.1}
\contentsline {subsection}{\numberline {4.2}P\IeC {\l }ytka z czujnikami}{7}{subsection.4.2}
\contentsline {section}{\numberline {5}Projekty oraz wykonanie p\IeC {\l }ytek}{7}{section.5}
\contentsline {subsection}{\numberline {5.1}P\IeC {\l }ytka g\IeC {\l }\IeC {\'o}wna}{7}{subsection.5.1}
\contentsline {subsection}{\numberline {5.2}P\IeC {\l }ytka z czujnikami}{8}{subsection.5.2}
\contentsline {section}{\numberline {6}Zako\IeC {\'n}czenie}{8}{section.6}
